open,high,low,close,volume
158.32,159.62,158.1,159.54,2358385
159.88,160.57,159.15,159.55,2315366
159.88,160.86,159.11,160.35,2994056
160.19,161.76,160.0,161.64,2867257
160.55,161.21,158.76,159.0,3963164
158.03,158.4,155.65,155.69,5185972
155.26,158.53,154.84,158.29,4367529
157.63,157.93,155.5,155.81,3636719
155.7,155.87,153.39,154.05,3860553
154.3,156.33,153.21,155.66,3662573
155.04,155.4,153.47,153.84,6463644
154.87,156.19,154.55,154.87,2450117
155.87,156.57,154.45,154.45,2159092
154.91,155.68,153.87,155.53,2473895
156.15,157.22,155.69,156.11,2691115
155.62,156.04,154.71,154.98,2702153
154.46,154.46,153.46,153.98,2533325
154.32,156.77,153.81,156.77,2987195
156.99,158.625,156.23,158.29,3310008
158.63,165.0,157.46,158.11,3374838
158.9,159.838,158.06,158.85,3596878
158.06,158.37,157.02,157.61,2227800
157.67,158.53,155.82,156.46,2884146
157.07,157.83,156.72,157.08,1684458
156.84,157.43,155.89,156.88,1950106
157.14,157.7,154.86,155.67,2671852
156.71,158.49,156.655,157.02,2481288
156.73,156.95,153.89,154.79,2901326
154.97,154.97,153.08,154.29,2963968
153.7,154.22,152.27,153.72,2909948
154.47,155.53,154.09,154.45,4358197
154.45,155.89,154.34,154.77,5890421
150.02,151.0,147.79,150.72,12770570
151.27,152.45,150.83,151.26,4632854
151.28,152.9,151.02,151.52,4023103
150.58,151.15,149.56,149.63,4414206
150.4,151.52,150.4,150.57,2666740
150.69,151.16,149.83,150.88,2647487
150.71,152.94,150.255,151.81,2811728
152.82,154.06,152.02,153.35,4229336
154.05,154.44,152.18,152.61,3654496
152.76,154.33,152.76,153.69,3553172
153.5,153.91,151.74,152.79,3191924
152.48,153.345,151.67,151.95,3074438
152.51,153.74,151.8,152.37,2878803
152.4,153.64,151.87,152.43,2470368
153.99,156.11,153.84,155.72,3804943
154.56,155.93,153.06,155.17,3921944
152.96,155.56,151.0,154.81,5403688
157.66,161.16,157.59,160.22,7715807
159.97,161.34,159.33,161.27,4446630
161.25,161.86,157.58,158.21,5196498
158.42,159.15,157.55,158.67,3476996
158.46,159.55,158.03,159.29,2252806
159.22,159.93,158.85,159.8,2261195
159.8,160.72,159.21,160.39,2981633
160.69,163.0,160.3697,162.77,4637097
163.0,163.0,161.95,162.67,2770789
161.94,162.38,161.3557,161.98,2256165
161.83,163.19,161.83,163.14,1605344
163.2,164.66,162.7,164.52,4449355
164.0,164.41,163.03,163.53,3148196
163.35,163.8,162.21,162.22,4397817
161.95,162.195,158.3,159.82,4635665
159.0,160.29,158.41,160.02,2740867
160.85,161.15,159.5875,159.84,3447052
160.13,160.79,158.93,160.35,2858962
160.6,165.18,160.39,164.79,4435050
164.87,166.0,164.22,165.36,3266436
165.18,166.72,164.6042,166.52,3146930
166.72,166.79,165.07,165.5,3392331
165.68,169.952,165.68,168.29,5932271
168.37,169.89,167.45,168.51,4124161
168.01,169.85,167.78,168.02,3388570
168.97,169.11,166.06,166.73,7120572
166.83,167.26,166.0,166.68,2955906
167.49,168.25,166.45,167.6,2174569
166.25,167.94,165.25,167.33,3575721
167.36,168.23,166.58,167.06,2802631
167.0,167.49,166.45,166.71,1701228
166.98,167.98,166.85,167.14,1397455
167.29,167.74,166.0,166.19,1757500
166.02,166.99,166.0,166.6,1663542
166.44,166.7,165.5,165.99,2952825
167.0,167.87,166.01,167.19,2934299
167.77,169.87,167.36,169.26,3381432
169.25,169.39,167.26,168.7,2682301
168.69,169.92,167.52,169.53,2945536
169.47,169.8,167.62,167.65,3189891
167.98,168.09,165.34,165.52,4118694
166.05,167.76,165.6,167.75,3599464
167.77,168.01,165.56,167.95,2927973
167.97,168.48,166.875,167.34,2875433
166.69,168.18,166.1201,167.89,3315655
167.45,168.59,166.69,166.8,4007779
166.96,167.45,165.8,166.81,6963386
167.81,170.64,166.0,170.55,12690029
170.08,171.25,170.01,171.03,5478224
171.36,176.0,171.16,175.9,6952369
176.26,179.25,176.13,178.29,5922462
178.06,178.88,177.51,178.66,3063924
178.47,179.2,177.3,177.3,3482311
176.98,177.07,174.5768,175.8,4094755
175.05,175.58,173.61,174.52,4138962
175.0,175.7025,172.89,174.29,2795745
174.23,174.97,173.55,174.58,2620526
175.0,176.34,174.89,175.82,3309288
175.31,175.98,174.38,175.86,2650785
176.0,178.62,175.9,178.46,3873455
177.5,177.5,175.88,176.17,2913126
176.17,177.8,175.91,177.21,3090710
177.37,178.8701,176.76,178.68,2930710
179.24,179.9,178.84,179.36,3093372
178.57,180.13,178.35,180.13,2776528
180.2,181.92,179.81,181.68,2914292
181.45,182.79,180.87,181.43,3251547
181.25,181.57,180.0,180.67,3552495
180.6,180.79,179.12,180.26,4480299
180.09,181.34,180.09,181.15,3020540
182.0,182.5,180.92,181.65,2282526
180.21,181.49,179.89,181.35,3300093
181.19,181.25,179.28,179.4,3691327
179.38,180.63,179.35,179.82,3273420
180.48,182.55,180.03,181.95,3005564
181.88,181.88,180.43,180.53,2918183
180.04,181.32,179.7649,180.05,1825048
179.72,180.99,179.57,180.47,3204434
180.71,181.29,180.1997,180.38,2980516
180.75,180.95,179.3,179.45,3557396
179.15,179.25,175.88,177.18,5444076
178.21,179.49,177.42,177.83,3100326
177.85,178.06,176.415,176.46,3482189
176.18,176.82,175.211,175.72,3147497
175.71,176.28,174.75,175.81,3815537
178.46,179.0,176.82,177.24,4311848
176.29,176.79,175.65,175.65,5920967
175.65,176.18,175.14,175.7,2476125
176.01,176.23,173.84,173.88,3927741
174.04,175.06,172.8,174.78,3450512
174.43,175.67,173.56,174.82,3739976
175.12,175.5,173.39,173.83,3221675
172.69,174.16,172.0937,173.77,3259049
173.94,175.0,173.0,174.51,3523870
174.3,174.49,173.46,173.94,3085606
173.86,174.59,173.69,173.86,3168254
173.98,174.95,173.69,174.14,2913684
173.82,174.87,173.38,174.5,4286498
173.52,174.96,173.26,174.52,3108885
174.7,176.33,172.81,172.88,6238894
173.47,173.47,172.25,172.45,3435403
172.08,172.93,171.28,172.14,3588302
172.53,172.56,171.0,171.2,3789936
170.65,171.23,168.98,170.58,4891911
171.04,171.2,170.02,170.66,3276931
169.92,171.36,169.53,169.53,3205462
169.75,171.3,169.62,171.1,3720218
170.79,171.69,169.83,170.05,6345465
161.76,162.64,159.6,161.69,19284284
161.32,162.4,160.5,162.3,6487379
162.05,162.11,160.38,160.38,5607756
161.29,161.57,160.42,160.75,5320608
161.78,162.04,160.38,160.39,4860407
160.53,161.1,159.89,160.06,4328001
160.29,160.48,159.63,160.32,4122943
160.5,160.59,159.7,160.29,4154147
160.05,160.42,158.7,158.84,4935312
159.44,159.49,158.64,159.1,3208239
158.74,159.45,158.52,158.63,3993396
158.89,159.14,158.36,159.05,4280613
153.52,155.78,153.0,155.05,12521335
152.8,153.47,152.2,153.03,7491966
152.6,153.1,151.5552,152.11,6853043
151.651,152.37,151.13,151.25,4999861
151.05,151.15,149.79,150.65,5627964
150.3,151.265,150.0,150.37,3715702
150.62,151.83,150.4502,151.51,4245471
151.66,153.99,151.66,153.68,5513690
153.3,154.14,150.89,150.93,5191494
150.86,151.33,150.11,150.78,3274371
151.01,152.46,150.89,151.98,5643264
152.1,152.84,151.5992,152.64,3302539
152.57,153.68,151.92,152.03,2564503
152.21,152.76,151.23,152.51,3732399
153.25,153.73,152.9459,153.2,2582815
152.85,153.0,152.06,152.49,2443507
151.95,152.67,151.59,151.73,3666032
152.03,152.8,151.65,152.63,3543404
152.8,152.87,151.63,152.67,2918126
153.07,153.2,151.8,152.05,3585701
151.82,152.93,151.6826,152.41,3975268
152.0,152.89,152.0,152.37,3797173
153.05,154.2,150.8,150.98,4865712
151.0,152.82,150.92,152.1,3708962
152.0,154.265,151.88,154.1,4361460
154.19,157.2,154.02,155.18,6471479
155.44,155.48,154.15,154.25,3523529
153.97,154.9399,152.94,153.81,3049726
153.29,154.69,153.29,154.22,4654297
154.23,155.42,152.9676,155.38,6741963
155.51,155.86,154.54,154.84,4629592
154.48,155.389,154.25,154.95,4481843
155.79,155.79,153.39,153.79,3959668
154.55,154.99,153.69,154.4,2376819
154.34,154.68,153.8,154.11,3282205
154.71,155.75,154.63,155.23,2153494
155.0,155.34,154.5,154.75,2386491
155.15,155.55,154.78,155.32,2220954
155.35,155.74,153.62,154.13,3262159
154.28,154.5,153.14,153.83,3571536
153.58,156.025,153.52,155.58,2822651
155.77,155.89,153.63,153.67,3564354
153.36,153.83,152.23,152.36,2757522
152.62,153.49,152.14,152.94,2460060
152.91,153.89,152.63,153.42,3206209
153.26,153.65,152.05,153.19,3447509
153.48,154.24,153.05,153.7,3097850
153.7,154.19,153.19,153.63,2476112
154.01,154.615,153.4,154.24,3256372
153.59,153.88,152.2399,153.01,4762592
152.36,154.29,152.0,154.0,7566818
150.02,150.25,146.71,147.53,14293610
147.53,148.83,147.03,147.66,7212233
147.59,147.87,146.51,147.08,6509459
147.0,147.04,145.8,145.99,3877593
146.57,147.49,146.03,146.19,4208895
146.27,146.46,144.47,145.36,3932361
145.0,145.395,143.64,145.07,6430841
144.81,145.04,143.84,144.29,3054834
144.38,144.93,144.17,144.67,4355718
145.0,145.67,144.72,145.3,3219477
145.12,145.29,144.22,144.45,3540949
144.43,145.34,144.43,144.94,3035393
145.0,145.39,144.4,145.16,2549400
145.0,145.09,142.75,143.47,4618284
142.0,142.76,142.0,142.11,3298718
141.75,142.03,141.19,141.77,2925770
141.64,142.42,141.23,141.84,4525378
142.45,142.59,141.52,141.84,3004360
142.0,142.76,141.94,142.32,2248607
142.55,143.34,140.58,142.07,4681545
141.79,142.91,141.61,142.5,3287821
142.52,142.89,140.7,140.7,4422087
140.87,141.15,139.58,139.7,4152714
139.59,140.42,139.13,140.33,3190691
140.64,141.15,140.38,141.01,2544446
140.7,143.05,140.68,142.14,4048317
142.5,143.68,142.25,142.94,3592183
143.3,144.19,143.25,143.74,2872893
144.11,144.56,142.39,142.51,5134463
142.1,143.425,141.9,143.14,3009520
143.26,143.28,142.41,142.56,2735966
143.02,143.66,142.63,143.03,3656428
142.98,144.5,142.98,144.08,3351733
143.5,144.3575,142.7,143.04,3098735
143.88,144.47,143.5,143.82,3273344
144.1,144.64,142.41,142.9,4188158
143.15,143.15,141.64,142.45,3366169
143.54,145.13,143.01,144.86,4613381
145.11,146.37,144.51,145.76,5238148
145.35,146.29,145.34,145.99,4100980
145.86,146.38,145.51,145.54,3756861
144.82,145.17,144.08,144.82,7397233
144.81,145.4799,144.27,144.55,3019514
144.79,144.98,144.22,144.39,3464383
144.93,145.88,144.42,145.88,5447519
145.65,145.8911,145.1,145.26,2555596
145.59,145.59,144.59,145.13,2792323
145.12,146.03,144.91,145.87,5213144
146.36,147.42,145.94,146.56,4488620
146.68,146.9,145.03,145.66,3502736
145.33,145.86,144.21,145.66,2774788
145.45,145.69,144.92,145.08,2654731
145.35,146.865,145.21,146.66,2973224
146.69,147.1999,146.34,146.78,2302724
147.0,147.02,146.11,146.48,2244433
146.68,147.54,146.48,146.72,2686539
146.64,146.85,146.32,146.48,2623184
146.5,147.79,146.35,147.39,2682556
147.71,148.95,147.65,148.5,4032601
148.4,148.47,147.28,147.62,3702238
147.56,147.89,146.77,147.03,3264344
147.48,147.85,146.94,147.1,2506584
147.22,147.67,146.51,146.83,3052091
146.63,147.12,146.18,146.54,6372393
157.12,161.23,156.95,159.53,30490192
159.8,160.96,159.085,160.9,9914169
161.07,162.48,159.77,162.07,7868803
162.05,162.51,159.54,159.55,5779378
159.65,159.7,155.171,155.88,8194690
156.01,156.37,153.06,153.5,6921137
154.31,155.12,153.54,153.6,4300543
154.54,154.63,152.911,153.68,4895186
153.76,154.59,152.71,154.36,4210402
154.33,154.93,152.93,154.06,4328258
154.1,154.9,153.83,154.03,3240246
154.18,154.49,152.91,153.35,3397628
153.42,153.47,151.49,151.58,4431825
151.77,151.82,150.28,150.84,4498871
151.37,151.51,150.5,151.35,3701052
151.6,151.7944,150.28,151.57,4634439
149.93,151.8,149.86,150.3,4776532
150.65,150.89,149.14,149.16,4307276
148.88,149.0,147.92,148.4,5107546
147.95,148.97,147.49,148.89,3757951
148.0,148.705,146.211,147.1,4773328
147.73,149.65,147.5,149.12,5446453
149.34,150.15,148.83,148.97,4916500
150.64,151.95,149.9,150.51,5676495
151.3,152.45,151.2,151.95,3756184
152.0,152.39,151.33,151.77,3213596
151.95,152.2,151.33,151.84,1193025
152.06,152.49,151.62,151.98,3374042
152.35,152.93,151.7,152.47,3973670
152.81,153.61,152.17,153.55,5098702
153.65,154.41,153.08,153.97,6500769
154.4,155.02,152.9125,154.76,5567852
155.67,156.8,155.07,156.46,4664316
156.45,156.74,154.68,155.35,5068043
155.69,156.22,154.09,154.1,3410728
154.03,154.45,153.26,153.57,3771429
153.94,155.03,153.55,154.81,3520281
154.97,155.89,154.57,155.41,4102719
155.2,157.85,155.16,156.74,6321801
156.6,156.73,153.89,153.91,5661618
154.6,155.11,153.7,154.0,4637440
153.61,153.8,152.03,152.5,11279854
153.59,154.18,153.21,153.33,5092838
154.05,154.17,153.09,153.23,4116449
153.65,153.89,152.78,152.95,3785667
153.17,153.46,151.49,151.5,4153935
151.82,153.0,151.5,152.5,2990583
152.51,153.86,152.5,152.83,2479017
152.95,153.18,152.61,153.13,2149257
153.2,154.12,153.2,154.04,2687624
154.17,154.72,153.415,153.42,3327087
154.5,154.81,153.54,154.25,4202503
157.34,159.81,156.33,158.49,9441567
159.65,162.3237,159.37,161.7,7556249
162.44,162.9,161.101,162.49,5195764
162.66,163.905,161.701,163.47,5237523
163.9,164.53,163.06,163.83,4341810
162.91,164.33,162.5,164.18,4174105
164.8,164.94,163.3,164.2,3794453
164.02,164.74,163.03,163.14,5031886
165.1,165.29,163.35,163.85,7794195
168.01,169.1253,167.26,168.65,11710033
170.0,171.13,168.15,169.12,14259345
164.46,165.4,161.3,162.37,21172488
161.51,163.98,161.11,162.6,8480795
162.82,166.26,162.51,166.25,7466232
166.75,168.72,164.82,165.37,5645003
165.91,166.78,165.19,165.47,3302520
166.12,167.4142,165.79,167.34,3787913
167.45,168.39,166.01,166.8,3516995
166.21,166.77,163.155,163.62,4902341
163.75,164.99,162.761,163.7,4072830
163.19,164.13,161.9,162.4,4434242
161.7,162.0,158.8663,159.03,5251938
157.89,158.5,150.0,152.53,8746599
150.29,155.49,149.11,155.34,9867678
154.17,155.34,153.28,153.85,6149207
152.48,153.16,147.5,147.59,6779095
148.6,150.54,144.3955,149.51,7828290
150.9,152.4,150.3,151.4,5881377
150.9,151.179,149.64,150.75,4891010
150.19,155.0,150.0,154.76,5479033
155.5,156.86,153.7,156.01,5623581
155.71,157.7905,155.69,156.18,4282908
155.79,155.96,153.87,155.16,4489604
155.43,156.79,153.9,153.96,3728571
154.5,155.04,152.79,153.18,4024627
154.3,155.855,154.07,155.52,3256074
155.81,158.88,155.51,158.58,3610292
158.46,159.78,156.53,156.55,4237283
157.5,158.1399,155.8,155.83,3803512
155.53,156.9742,152.79,153.81,4039339
152.79,154.76,151.88,154.49,3261141
154.12,157.49,153.75,156.95,3670630
157.28,157.89,155.1568,155.72,3685736
155.0,158.83,154.73,158.32,4607677
159.0,159.57,155.07,156.21,6455612
157.47,159.5825,157.3,159.31,5022238
159.64,161.02,158.87,160.26,5063497
160.09,162.1122,158.81,159.32,4185590
160.17,160.68,157.74,158.12,3631825
158.71,161.25,158.52,159.61,3870595
160.06,161.98,159.64,160.26,9262656
159.71,159.8899,156.45,157.35,5481983
157.52,157.93,155.29,156.2,4336738
156.57,158.2,155.92,156.69,3482184
155.0,155.2499,152.0,152.09,4746349
152.25,152.58,148.541,148.89,4440883
151.21,153.657,150.28,153.37,4103904
153.95,154.8697,151.16,151.91,3883745
152.07,153.86,151.89,152.52,3664826
153.07,153.89,151.08,153.43,3419959
153.34,153.38,148.43,150.07,5150435
150.8,151.0,148.3,149.85,4135696
147.89,154.47,147.45,154.12,4805261
154.44,154.92,153.34,154.03,3185388
153.46,153.95,149.54,150.57,3672919
151.8,154.66,151.7433,152.69,4413178
155.03,156.605,154.75,155.39,3955952
154.37,155.78,153.88,155.36,3306539
156.75,158.98,156.67,158.07,5639444
158.67,159.22,155.91,156.71,4057058
157.99,159.14,157.67,157.89,4186755
158.82,162.0,158.51,160.91,10207534
152.14,152.63,148.26,148.79,20381695
149.19,149.2072,146.62,147.7,8086056
147.9,147.97,144.51,144.9,8265643
145.03,145.96,144.33,145.86,5315625
146.51,147.3,144.53,145.56,4916476
145.79,146.4,144.111,145.94,7326379
146.6,147.36,146.2,146.72,4265812
146.84,147.25,145.66,146.48,3205482
146.86,147.38,144.96,144.96,4415533
144.65,145.02,143.47,145.0,4433393
144.46,144.82,142.07,142.45,5194917
142.13,142.23,139.9,141.99,5018592
141.1,144.35,140.28,143.91,4402170
144.0,144.32,142.6403,143.22,3657009
143.0,143.507,142.06,143.0,5369119
141.9,143.02,141.28,142.61,4195953
143.15,144.33,143.01,144.24,3726608
144.11,144.85,143.58,144.14,3073167
144.47,145.12,144.14,144.3,3216062
143.5,143.99,142.92,143.74,4089397
143.7,145.0275,143.27,144.63,3168659
144.5,145.19,143.77,144.5,3147659
144.47,144.94,143.99,144.08,2682243
144.95,146.04,144.68,145.49,2894698
145.52,146.204,145.0,145.09,2284020
144.35,144.7,143.48,144.67,3459747
144.39,144.48,142.95,144.07,3398701
143.9,144.57,143.46,143.64,4914294
142.53,142.89,140.21,141.22,4537638
141.9,143.1,141.82,142.62,5118530
142.81,142.81,141.05,141.31,6830256
142.43,142.84,141.62,141.95,3857530
142.3,143.17,142.18,143.04,3035257
143.05,144.08,143.04,143.7,2836017
144.34,144.72,143.54,144.71,3220139
145.0,146.7,144.93,145.36,4316484
145.0,146.43,144.37,146.14,5210468
146.62,147.41,146.14,146.58,3259986
147.1,147.52,146.62,146.87,2640515
146.79,147.47,146.2,146.35,2968180
146.65,146.98,145.09,145.2,3326343
144.9,145.47,143.7,145.39,9116048
144.18,144.52,143.14,144.48,4286406
143.12,144.22,142.95,143.9,3487015
144.22,144.52,142.41,142.63,3329917
142.59,143.14,140.83,141.25,3887650
141.64,141.81,140.78,141.28,6013678
140.4,140.4,138.28,138.79,8937085
139.36,139.8499,138.33,139.08,4139455
139.11,139.78,137.45,137.48,4101828
138.1,140.54,137.945,140.04,4523666
140.32,141.359,139.61,139.7,3753684
138.28,140.22,138.2,139.86,3405642
140.65,140.94,139.3678,139.57,1963232
140.48,141.43,139.93,141.43,3744730
141.53,142.94,141.17,142.48,2910426
142.59,144.72,142.47,144.39,3904652
144.51,145.59,144.255,144.71,3776991
144.0,146.19,144.0,144.94,3526565
145.85,146.83,145.74,146.45,3119505
146.45,146.9799,145.8,145.9,3067638
145.67,145.79,144.21,145.46,3468817
144.75,145.0,143.34,143.49,5096741
143.51,144.8,142.7351,144.52,6935288
147.85,150.54,147.25,149.24,14655804
148.58,148.86,146.26,146.35,6415972
146.35,146.7,145.015,145.7,3897892
146.7,147.04,145.92,146.38,3891625
146.01,146.65,145.5,146.62,3623182
147.43,149.27,146.63,146.71,4778022
146.89,147.14,144.66,145.15,3749642
144.8,146.24,144.69,145.49,3608283
145.74,145.8,144.159,144.93,5474478
144.76,145.19,143.34,143.5,3388386
142.86,143.36,142.33,142.96,3841447
143.24,147.92,143.0,147.7,8053567
146.95,147.2,145.57,146.03,3913743
146.65,147.64,146.35,147.01,3508758
147.33,147.43,146.24,146.89,3581746
145.53,145.94,144.73,144.77,3093504
144.5,145.07,143.88,144.48,3003158
144.15,144.3,142.53,142.71,2858842
143.0,143.82,142.93,143.36,2860041
142.55,144.0,142.0,143.91,4241496
144.37,145.68,144.37,145.34,5250878
144.79,146.39,144.69,146.06,2678820
146.37,147.16,146.15,146.51,2499654
147.0,147.12,145.89,145.97,3106876
146.01,146.16,145.19,145.24,2388961
145.04,145.52,144.75,145.37,2220603
145.46,146.0869,144.87,146.04,2776813
146.94,147.62,146.52,146.69,3491565
146.95,146.99,146.19,146.59,2455328
146.87,147.93,146.6,147.54,3153845
147.03,147.3,145.25,145.93,3340369
145.72,146.78,145.5401,146.48,3488476
145.98,146.19,144.81,145.68,3326153
145.19,146.75,145.05,146.66,3126540
146.88,147.66,145.54,146.39,4248831
145.94,146.5031,145.12,145.45,4693127
146.6,147.3,145.56,145.65,3618292
146.0,146.99,145.25,146.49,3374774
146.37,147.98,146.03,146.57,4506679
147.35,149.0,147.1179,148.95,5346540
148.85,149.3,147.78,148.33,3452144
148.44,149.07,147.77,147.94,3551882
147.76,148.985,147.47,148.56,3629596
148.63,149.9599,148.23,149.06,4246382
149.58,151.38,149.44,151.15,5952223
151.48,152.6,150.74,151.35,19947878
151.1,151.2,149.46,150.03,4264984
149.91,150.41,148.36,148.91,4397457
152.4,153.35,151.34,151.61,7401862
152.01,152.3888,151.16,151.5,3477643
151.16,151.625,150.79,151.21,3305798
151.71,153.42,151.71,153.0,3757419
152.99,153.84,152.5,153.75,3030125
154.0,154.36,152.8,153.22,3315298
151.69,152.8,150.36,151.31,4238143
150.9,151.79,147.87,149.03,4602252
148.5,149.07,147.18,148.39,3239347
148.08,148.36,146.93,147.24,3642496
147.5,147.69,142.5,142.69,5547697
142.62,144.19,138.78,139.02,8710491
141.12,141.54,139.08,140.85,6563403
140.38,142.26,140.14,141.13,4965533
142.93,145.45,141.58,145.12,8695489
135.89,137.15,133.4193,134.05,19463962
132.73,133.4,130.04,130.55,10011678
130.65,131.89,127.96,129.1,7791636
129.58,130.4379,128.4,130.02,5719518
129.02,131.9,128.41,131.21,6463580
131.17,131.69,127.0,127.21,5710320
127.25,127.79,125.14,126.45,10304327
125.21,125.78,123.71,124.79,8767029
119.34,123.95,118.3,119.64,20450448
120.48,121.5,115.15,115.4,21458594
116.49,116.5,114.09,115.43,21644978
115.5,117.0,115.11,116.83,13626730
117.51,117.75,114.5384,115.67,10592681
116.1,120.77,116.0,120.06,9144598
120.7,123.81,120.31,123.12,9597392
123.79,125.06,122.33,124.84,12382666
122.66,124.404,122.63,123.38,10396439
123.61,124.57,121.96,123.54,6961902
123.5,123.57,120.65,120.9,5379113
121.19,122.2505,119.9,120.84,4084385
121.11,121.93,119.77,120.2,4762275
119.66,121.44,119.51,121.44,5207973
120.89,121.85,120.5405,121.57,4076315
121.63,122.18,119.77,120.31,4131238
118.49,119.49,116.6955,117.2,6233777
117.61,119.51,117.39,118.57,5335842
118.09,118.3382,116.91,117.19,2334730
118.37,120.25,118.06,119.56,5011130
118.38,120.04,118.37,120.03,4903771
121.01,123.09,120.22,123.0,5104520
122.44,123.1208,121.4,121.48,5200113
121.66,124.69,121.48,124.27,7251590
125.67,126.59,124.36,125.31,5843112
124.49,124.92,121.33,121.6,6000697
119.72,123.91,119.301,123.91,6938049
123.9,124.05,118.87,119.34,7019616
119.74,121.6822,118.52,121.13,6549506
123.25,123.81,120.0,120.89,5043081
122.51,122.88,121.0,121.16,3560790
121.26,121.79,120.17,120.73,3993597
119.5,121.11,119.44,119.9,4554204
119.07,119.78,115.07,116.1,7374476
116.9,118.23,116.02,116.65,6290186
117.15,120.27,115.97,116.43,6979823
115.7,116.45,111.7,113.02,8454350
112.5,115.28,110.44,110.94,10386453
109.9,111.0,107.5,107.57,3821376
108.0,111.39,105.94,111.39,6645794
109.99,113.78,109.4699,113.78,6045590
114.22,114.8,112.5,113.03,5117533
113.33,114.35,112.4201,113.67,4982755
112.01,115.98,111.69,115.21,4239924
114.53,114.88,112.69,112.91,4346659
114.91,117.49,114.44,117.32,4477755
117.5,118.83,116.67,118.15,3751204
119.66,120.57,118.98,119.83,4763636
120.91,121.4,119.87,120.69,3633663
120.08,121.86,119.95,121.79,3909971
121.58,121.615,120.2,121.46,3722370
120.51,120.6548,119.7607,120.39,5228909
120.96,121.93,120.82,121.73,3507719
121.58,122.0,120.83,121.62,3841100
120.56,122.4085,120.55,122.19,5029871
123.27,124.7175,122.71,123.82,6008509
123.3,123.8,121.54,122.52,10052384
131.37,135.0,130.31,132.89,22063666
132.63,133.2054,131.43,132.53,6322928
132.87,134.44,132.43,133.97,5708500
133.1,134.805,132.58,134.27,5357736
134.29,135.4149,133.6,134.33,5037129
134.0,135.03,133.25,134.38,4500919
134.45,134.716,133.74,134.42,4884031
134.97,135.2,133.35,134.1,3806047
134.02,135.2,132.99,135.19,3966597
135.28,135.82,134.92,135.55,5398907
135.22,136.65,135.17,136.32,4879670
133.55,134.47,132.12,133.19,4379439
132.34,133.71,132.19,133.71,3250074
134.29,135.15,133.91,133.99,3095069
135.15,136.2,134.86,136.05,3317161
136.92,137.92,136.41,137.52,4253042
137.17,137.6019,136.21,136.48,2789839
137.58,138.185,137.385,138.03,3844062
137.81,138.7,137.36,138.7,3385675
138.76,139.24,137.2203,138.0,3801979
137.82,138.35,137.35,137.84,2937467
138.73,139.38,138.43,139.25,3113698
140.0,140.47,139.32,139.46,3194161
139.67,140.49,139.47,139.72,3060381
139.25,139.57,138.4007,139.17,2530968
138.77,139.055,137.72,138.13,3457788
139.31,140.04,138.64,139.2,3030044
139.99,140.08,137.17,138.43,3407217
138.37,138.74,137.555,137.88,4250650
138.12,138.3892,136.72,136.98,2768256
136.61,136.89,134.6343,135.36,4358802
134.21,135.24,133.58,135.09,3773722
136.03,137.73,135.84,137.71,3939517
138.52,139.695,137.86,138.28,3954653
138.05,139.325,137.85,138.56,3173179
138.51,138.94,138.06,138.79,2738790
139.37,140.33,139.23,139.43,7153687
139.83,140.365,138.72,140.21,3268510
140.96,141.7024,140.002,140.49,3482336
140.53,140.7,138.98,139.6,3649455
139.1,142.12,138.88,141.44,3605420
140.97,141.44,138.9,139.45,3877616
139.06,139.91,138.35,139.18,2839766
139.93,141.02,139.42,140.22,2553708
140.41,140.49,138.4,139.24,3098233
139.91,140.44,139.1,139.92,2663884
140.5,141.22,140.15,141.1,3101454
141.51,143.41,141.51,143.3,3984250
143.35,143.95,142.6,143.0,2404920
143.65,144.22,143.01,143.63,2681645
143.62,144.14,142.54,142.78,2771462
143.29,143.5,142.46,143.28,2731985
143.02,143.42,142.87,143.39,2118228
142.66,142.95,141.84,142.11,3038460
142.2,143.495,141.98,143.02,2678310
143.8,144.11,143.03,143.78,2941985
144.26,144.44,143.7,144.35,2898899
144.4,144.4597,143.27,143.9,3603158
144.4,145.39,144.02,145.14,6301671
137.37,141.98,136.26,139.11,12525693
139.0,140.49,138.7,140.33,4960015
139.42,140.56,138.48,138.89,4494333
139.15,140.92,138.9399,140.44,4462240
140.6,141.31,139.78,139.95,2774867
139.7,139.7482,137.71,138.63,2910113
139.34,139.89,138.81,139.44,2319834
139.15,139.63,138.81,139.05,2958333
139.11,140.44,138.68,140.27,4638828
140.55,141.81,140.17,140.56,3053683
140.5,141.28,139.41,139.59,3541352
139.7,141.0,139.63,140.25,2580034
138.3,140.69,137.9,140.38,2793655
139.15,139.51,136.19,137.64,4726771
137.77,138.7,137.13,138.0,3818909
134.89,135.5848,133.03,135.34,4192942
134.88,135.75,132.42,135.32,3977686
133.28,133.57,130.96,131.42,4958021
131.82,134.32,131.68,133.31,3280374
132.59,134.59,132.37,134.4,2551009
134.74,136.11,134.64,135.88,3017472
134.68,135.41,133.94,134.32,2619135
133.53,135.43,132.9308,135.12,3264649
136.12,137.06,135.79,136.45,2503504
136.0,136.75,135.7116,136.35,1849821
135.13,135.13,130.44,132.39,5343437
133.53,134.245,131.59,132.28,2596121
132.13,132.64,130.27,130.46,4909121
130.0,130.28,128.32,129.69,3678978
129.74,129.97,128.93,129.57,2741880
128.44,128.44,126.85,126.99,3539343
127.1,128.56,127.06,128.27,4267080
129.56,132.74,129.085,132.69,3913535
133.38,133.61,130.47,131.49,3161584
132.19,132.65,130.9,132.22,2298248
132.47,134.72,132.21,133.31,2553398
134.38,135.3526,133.91,134.74,2911327
135.32,136.46,135.05,135.95,3407345
135.56,135.94,134.41,134.87,2254741
135.13,136.27,135.09,135.76,2955419
135.44,135.88,134.43,135.15,2193367
135.39,136.03,134.7,134.95,2194129
135.2,137.19,135.2,136.38,2914698
136.43,138.36,136.24,137.08,2382520
138.93,139.54,138.2,138.85,3071017
138.44,139.54,138.39,139.2,5288759
139.2,140.15,139.05,139.35,2186137
139.46,139.55,138.13,138.36,2801251
138.87,139.68,138.4073,138.52,2284567
138.72,139.3,137.95,138.52,2149824
138.57,139.14,137.84,137.9,6154039
139.6,141.49,139.28,139.88,3387184
139.75,140.43,139.47,140.22,2410092
140.72,141.82,140.43,141.54,1930361
140.87,141.49,139.91,141.38,2135085
141.05,141.285,140.27,140.57,2395487
140.61,140.99,139.13,139.33,3365227
140.0,141.91,139.79,140.47,2513931
140.79,141.58,140.3,141.24,2133327
141.92,142.92,141.66,142.74,2786276
142.89,143.51,142.12,143.32,2368309
143.17,144.04,143.02,143.53,3474688
143.61,143.8,141.95,143.07,6064265
142.5,150.31,142.2,149.63,12695387
149.96,151.58,149.55,149.68,7290678
150.16,151.94,149.7,149.74,4093239
150.57,150.72,148.38,150.38,3742204
150.12,151.45,149.195,150.03,2952435
149.82,150.62,148.61,150.39,3102113
151.0,151.41,150.1,151.36,2904494
151.11,151.48,150.32,150.88,2075528
150.0,150.4,149.22,149.77,2632726
149.7,150.18,146.39,148.24,3722907
148.9,152.82,148.5,150.32,6344006
149.03,152.95,145.59,147.25,8101720
144.98,145.1,139.15,140.76,7114871
142.03,142.47,139.31,140.73,5070650
138.74,139.58,136.4115,139.11,5931883
138.45,140.42,137.76,140.1,5261444
139.27,139.31,135.35,136.13,5244594
133.8,136.41,132.8058,133.67,4083850
133.8,136.57,132.8058,135.79,4551170
133.91,134.16,130.98,131.25,5114159
131.22,132.37,130.25,131.92,3738945
133.04,134.59,132.9539,133.76,3011993
134.88,136.33,134.88,135.04,3165436
135.24,135.28,132.81,133.0,3018934
134.96,135.94,133.8,134.25,2806774
134.69,135.68,133.81,134.32,2695009
133.63,134.26,128.83,129.57,4818759
131.05,131.3,129.16,129.99,2836837
131.2,131.6961,130.31,131.17,4728392
130.44,132.89,130.04,132.76,2720362
134.18,135.69,134.04,134.88,2972842
135.58,136.07,134.3627,135.53,2960594
134.85,134.9013,133.3301,134.1,2828242
135.71,136.43,135.15,136.32,2262081
138.3,141.695,138.05,140.97,5012914
141.52,141.525,140.46,140.57,2577200
140.59,143.02,140.46,142.6,4226944
143.0,145.46,142.96,145.05,4979741
144.85,145.12,142.7051,143.6,3869731
144.03,144.04,141.88,143.62,2505432
144.32,144.65,143.26,143.67,2206612
142.56,143.64,142.27,142.48,1928500
142.48,142.48,140.66,142.2,2940494
142.05,142.3,140.51,142.22,1995159
142.46,145.03,142.45,142.97,3182092
143.25,143.83,141.82,141.88,5217881
141.19,142.22,140.558,142.07,1850061
142.5,142.89,141.07,141.68,3311171
141.74,143.63,140.8588,143.16,2546205
143.17,143.88,141.41,143.55,2314542
144.41,145.09,142.38,143.24,2357082
143.73,146.57,143.73,145.42,4004429
145.59,147.35,143.54,143.66,2973714
142.19,142.2659,140.57,141.69,3347276
141.62,142.07,139.18,142.02,3161718
142.06,143.06,141.03,142.99,2449483
142.26,142.7,141.22,141.28,2488799
140.24,140.4749,138.25,138.38,3344083
139.77,140.33,138.79,139.67,2633472
139.77,141.78,139.56,141.13,2646693
142.77,144.5,142.61,142.76,3018669
142.31,142.43,141.32,142.04,2325609
142.54,143.72,141.81,143.0,3046999
142.49,142.95,141.3905,142.11,5915705
135.0,136.0,132.91,134.26,15830810
134.22,134.49,132.25,134.09,7178379
132.61,133.1,130.9,132.58,6372983
132.55,134.05,131.61,133.96,4195803
133.52,134.565,132.7,134.38,3627345
134.83,135.07,133.3,134.07,2619309
134.12,135.93,134.1,135.44,2579055
136.0,136.63,135.445,135.97,3226132
135.42,135.57,133.44,133.82,4160718
133.83,135.28,133.2,135.25,2252989
135.11,135.25,133.23,133.73,3412119
134.5,135.56,134.09,135.53,3089789
136.24,137.74,136.23,137.67,3335389
137.8,138.76,137.63,137.89,3014961
138.0,138.78,137.55,138.78,4477291
137.87,139.135,137.58,137.69,4073908
137.58,137.61,136.16,137.61,2278602
137.2,137.2,135.0,135.47,2568755
135.87,136.66,135.02,135.59,3046536
135.39,135.58,133.845,134.48,3060924
134.13,134.33,133.33,134.0,4231471
134.39,135.12,134.03,134.4,3262656
134.3,134.48,133.23,134.31,3210872
134.88,135.38,134.46,134.52,2995071
134.06,134.4614,132.75,133.2,4140148
133.4,134.17,132.98,133.84,3345343
134.19,134.65,133.59,134.34,3297797
134.47,136.0,134.35,135.97,2590170
136.15,136.15,134.77,135.09,3793337
135.35,135.71,133.62,133.77,3282827
133.6,134.52,133.03,134.45,1825255
134.45,134.5,132.48,132.91,3067831
132.0,132.44,130.689,132.12,3711071
132.86,133.68,131.96,131.99,3530773
132.99,133.24,131.6264,131.91,3598578
132.75,133.89,132.7,133.22,3437994
133.35,134.59,133.26,133.92,2978801
133.92,134.84,133.56,133.91,3480385
134.11,134.51,133.67,133.76,3953311
133.7,135.6604,133.66,135.32,4824186
134.75,135.5,134.01,134.21,2534970
134.94,135.45,133.85,134.13,3049325
134.28,134.69,133.46,134.22,2907547
134.55,135.0,134.1504,134.41,3102353
134.46,134.725,134.19,134.56,3866717
135.74,136.42,134.95,135.59,7112072
135.78,136.15,135.0,135.55,2803168
135.61,135.62,134.61,134.98,1202087
134.98,135.3055,134.65,134.91,2130706
135.0,135.75,134.87,135.27,2752706
135.2,135.3,132.5,132.81,4118937
132.53,134.12,132.4,134.04,3778012
135.0,135.92,134.7701,135.42,3148833
133.57,134.86,133.56,134.34,2373676
133.42,134.24,133.2,134.1,2426305
133.69,134.96,133.4,134.19,3275968
134.51,135.86,133.92,135.31,4346140
135.74,136.79,135.31,136.74,3732830
137.0,137.87,136.31,136.69,3255641
135.48,136.64,135.07,136.6,3531572
136.28,137.139,135.55,135.82,3683458
136.0,138.055,135.71,136.62,4045952
137.32,138.19,137.01,137.98,4320911
136.54,138.33,136.16,138.31,5623336
137.81,139.35,137.6,139.17,7244079
143.32,145.79,142.55,143.89,16470431
144.2,144.4097,142.15,142.87,5657790
143.39,143.92,140.46,140.56,5580189
138.5,140.069,138.1,138.62,4166562
139.5,140.47,138.75,139.55,3451557
139.17,139.58,137.595,137.69,3054714
136.76,136.97,134.97,136.77,5057906
142.9,144.05,140.79,143.73,18994560
144.25,147.28,143.9,146.27,8887502
147.78,149.38,146.88,149.11,5620966
150.21,157.44,150.15,156.33,14386823
156.82,158.75,155.42,156.76,8400545
154.55,155.54,152.92,153.41,6423429
152.97,154.44,151.58,154.43,5239807
155.12,155.22,152.7304,153.48,3835112
153.75,155.6,153.52,155.31,4438007
154.37,154.83,153.41,154.31,3820697
154.42,154.56,149.77,150.7,6099244
149.79,151.38,149.64,151.1,3343514
151.54,151.89,150.31,150.86,2733277
150.81,151.62,149.51,151.22,2880709
151.04,151.04,148.84,149.84,3537258
145.51,148.05,145.38,146.43,5452408
146.51,147.07,141.261,141.71,6211547
142.9,144.06,139.6,139.75,5409537
137.24,138.69,133.01,133.11,8421125
129.98,131.09,126.36,130.15,13012228
130.75,134.44,127.95,134.3,8531415
134.48,136.095,127.8,128.9,7896068
131.58,134.28,129.0,134.22,4996370
130.5,132.29,128.45,129.55,5446227
126.7,128.33,124.52,127.73,8193257
120.16,122.41,117.28,117.81,10757487
122.78,124.88,115.76,124.77,11410688
121.01,122.58,116.3838,117.97,8451038
109.65,109.8,102.28,102.81,12512655
108.68,109.16,100.81,107.95,12502113
98.0,107.41,95.0,99.08,10567960
100.61,107.395,97.1,106.65,9258338
99.41,106.9345,99.4,103.55,8772460
102.33,103.69,98.235,100.34,8396521
100.92,100.99,94.71,95.39,10546455
94.6,97.74,90.56,94.77,9729393
99.99,106.04,99.26,105.48,7973944
105.48,112.4779,102.83,105.85,8654047
106.91,113.15,105.57,112.89,7158052
108.58,111.5,107.645,108.03,6423038
108.09,113.46,107.81,112.93,5564541
112.0,113.81,110.17,110.93,6346676
106.36,109.92,104.521,105.14,6112947
105.37,110.32,105.14,110.0,6328674
108.92,110.07,104.92,106.34,4538750
110.35,115.63,110.13,114.82,7034193
118.8,119.57,114.87,114.94,5595329
116.31,119.96,115.0742,119.29,5158641
120.48,122.92,120.1672,121.5,5576815
121.63,121.8,118.04,121.15,5119713
123.46,125.18,122.62,123.91,5088660
119.12,120.1852,116.76,118.69,5637341
119.01,119.75,114.42,115.73,6457556
119.3,120.39,117.92,120.12,4965992
119.15,122.8635,118.14,120.41,8181736
114.0,117.145,112.06,116.76,14349032
119.87,120.33,117.55,119.31,7087869
119.57,123.03,119.12,121.35,6881615
122.41,125.0,120.7634,124.72,4987346
125.56,126.99,125.47,125.92,4923806
128.03,128.2,125.38,126.27,4778144
128.88,129.31,127.53,128.69,5257579
126.52,127.27,125.22,125.56,6635783
123.19,123.47,121.39,121.87,4925535
120.82,121.97,119.391,121.68,4017877
123.39,124.32,122.47,122.58,3899416
123.24,124.05,122.41,123.17,3864589
122.98,123.26,120.85,121.23,4414328
122.67,123.23,121.06,122.99,5003939
121.81,123.45,120.67,122.59,3535276
123.01,124.32,120.26,120.26,4784457
119.95,119.99,114.85,115.73,5882813
114.57,117.09,111.81,116.95,5259373
115.93,117.39,115.25,116.98,4786330
119.88,122.36,119.75,121.56,4207593
121.19,122.17,120.14,120.29,3241117
120.93,122.4659,120.6,121.38,3840858
120.99,121.72,118.97,119.12,4000863
119.37,119.465,117.59,118.39,4180771
121.3,122.62,121.0101,121.76,5469282
123.94,125.83,123.47,125.54,5727496
126.87,126.97,124.22,124.53,3916377
123.67,125.13,122.24,124.9,7930467
124.64,125.75,124.03,124.89,2883294
125.67,126.0,124.66,126.0,2978056
127.15,129.595,127.0,129.05,3917746
127.78,128.95,127.02,128.89,3864785
133.885,134.23,131.75,132.06,5892960
132.27,135.88,132.27,135.75,5370469
133.52,133.6,131.02,131.87,5393644
132.15,132.23,129.8,129.87,4734835
126.03,126.1,117.8352,118.01,11763629
121.25,123.12,119.28,121.91,6220327
119.19,122.367,118.29,121.65,5151240
125.0,127.5,123.16,125.15,5609087
125.83,126.25,123.4,124.15,3156836
123.0,124.4,122.33,124.16,2865362
126.17,126.82,122.25,122.47,8092354
122.12,122.5,120.53,121.07,4773499
122.01,122.9,119.23,119.41,6632605
118.32,118.32,115.88,116.42,6750990
116.76,119.21,116.1,119.03,6130626
118.26,118.99,116.26,117.19,10750107
117.98,119.78,117.37,119.75,4159488
119.19,121.2,119.0,120.77,3919469
120.27,121.225,118.37,118.54,4655765
119.69,121.42,119.26,119.7,3746958
121.25,121.85,119.46,120.19,4045439
119.0,119.51,117.33,117.58,4278307
118.06,118.64,116.48,117.71,5192806
118.0,118.0,115.2,115.71,4762991
115.5,118.5699,115.29,118.35,4285705
119.78,120.99,118.66,119.2,4650651
118.62,120.89,117.92,120.6,4534397
122.4,123.96,122.15,123.0,4473400
122.68,124.48,122.16,124.01,4330917
124.39,125.63,123.2,125.11,3988460
126.07,127.07,125.14,126.37,9927668
131.16,132.17,125.8,126.06,15364948
125.9,129.47,125.8,128.67,8195366
129.1,129.37,127.15,127.33,4220136
126.48,127.6459,125.5,125.79,3531076
124.86,126.32,124.71,126.21,3733547
125.82,126.34,124.15,124.47,4178176
124.56,125.99,124.07,125.32,2833141
123.71,123.9046,121.64,122.9,3988062
122.71,122.99,121.09,122.94,5277652
123.5,124.41,122.15,124.31,3526574
123.82,125.86,123.82,125.84,3431366
126.73,126.75,124.61,125.45,3675400
125.0,126.26,125.0,126.12,3417131
123.5,125.07,123.21,124.96,3651226
125.42,127.24,125.1849,127.11,3968295
128.76,130.47,126.61,126.75,5001176
127.61,127.79,125.876,126.7,3530177
125.96,126.39,124.77,125.03,3171258
124.2,125.56,123.91,125.27,2963753
125.25,125.59,124.41,124.44,3360064
125.0,125.5,124.24,124.92,2882355
124.83,125.5,123.5,123.84,3743949
123.2,124.04,122.81,123.15,2561164
123.01,123.4842,122.31,123.16,3385051
123.79,126.06,123.36,125.68,4070816
126.0,126.82,124.49,124.64,2977697
124.95,125.12,123.95,124.17,3388687
124.6,125.1,123.98,124.65,3422654
124.96,125.3,124.2187,125.07,3099940
125.25,125.25,123.03,123.31,4827879
122.85,123.95,122.15,123.4,3155623
123.72,128.7,123.575,128.18,6592430
128.19,129.95,123.65,124.45,5716750
124.35,125.35,121.24,122.3,6018238
122.16,122.87,120.71,121.21,5210292
122.13,123.7,121.29,122.26,3770678
122.53,123.5764,120.24,120.56,3978805
121.39,122.7,120.73,121.46,3548091
122.36,123.38,121.76,122.09,3641887
122.82,123.4,122.24,122.44,2915221
122.71,125.82,122.71,124.22,3789458
122.62,125.55,121.97,124.92,3171262
124.26,124.92,122.65,122.76,5391570
120.48,120.7,118.58,120.25,5311441
120.33,121.45,119.53,120.51,2957809
120.8,121.59,118.43,118.83,3939398
118.1,119.515,116.48,118.09,3546160
117.6,119.41,116.94,118.95,2953686
120.57,122.33,120.41,121.73,3509576
121.41,122.1858,120.21,120.94,2130564
121.38,122.91,120.8,121.67,3261235
122.36,123.3,120.355,121.09,3211661
119.04,121.75,118.82,120.57,2925228
121.84,122.75,121.05,122.01,3050949
122.58,124.83,121.59,121.97,3872265
122.67,124.39,122.32,124.07,2815663
130.86,135.5,129.77,131.49,25288926
132.0,132.0,127.6,127.79,8353704
128.07,128.25,126.44,127.21,4635115
126.57,127.15,124.46,125.1,5406088
125.13,126.94,125.13,125.94,3730139
124.08,125.215,123.85,124.89,3389301
125.17,126.43,124.655,125.93,4714320
126.8,127.35,125.08,125.52,7478735
119.8,120.15,116.84,117.37,21501073
116.66,117.6899,114.79,115.06,9755308
115.0,116.06,112.98,115.76,7858158
116.5,116.62,115.53,116.0,3893362
114.45,114.9,111.84,112.22,7203366
112.15,112.22,110.03,110.56,5936106
108.66,109.73,105.92,106.65,9427321
107.25,109.64,106.55,108.91,6760241
107.9,111.8,107.75,111.66,7923882
112.65,113.8265,112.25,112.91,5311497
114.0,115.65,113.63,114.16,4204287
112.33,113.91,111.16,111.9,5800071
113.3,115.29,113.01,114.77,4902206
115.08,115.1,113.39,114.04,5249171
117.88,119.74,115.27,115.53,8992152
116.69,118.17,116.25,117.91,5622756
118.12,118.35,116.22,117.2,4289601
115.63,116.37,113.48,114.5,6500799
115.19,117.37,115.01,116.85,4683512
118.3,118.55,117.12,118.36,5293385
117.6,118.54,117.07,117.7,4134455
117.72,118.88,116.75,116.77,4606828
116.54,117.45,115.89,117.18,3439648
117.6,118.04,116.69,116.94,5024593
117.43,120.515,117.27,120.09,5655119
120.86,124.73,120.805,124.42,7759006
122.93,124.33,122.11,124.2,4135894
124.2,125.313,123.91,124.35,2091186
124.1,125.0,123.09,123.52,5987991
123.9,125.83,123.08,123.16,5312057
122.85,124.64,122.41,124.62,3690737
124.16,124.86,123.29,123.61,4548161
123.97,127.38,123.64,127.2,5522760
126.49,126.97,124.57,124.7,8318500
125.32,126.33,124.64,125.71,5395024
125.8,127.69,125.7,126.79,6513517
126.35,126.93,124.94,124.96,4803172
124.08,125.51,123.61,124.27,4481416
125.32,126.2435,123.47,123.53,5050023
124.39,125.93,123.44,125.93,4359601
125.93,126.5728,125.286,125.55,4530096
126.08,126.09,124.91,125.55,3787962
125.59,126.4,124.97,125.85,7552845
123.97,124.18,121.72,123.39,6115671
123.31,124.22,122.41,123.61,4337757
123.88,125.21,123.74,123.9,2693889
125.0,125.1,124.21,124.69,1761122
125.1,126.6,124.46,124.82,3615222
125.35,125.48,123.24,123.8,3487007
123.8,124.85,123.63,124.34,3380494
124.22,126.03,123.99,125.88,3574696
